^C:\CHUAZED\NIST_PROF\FP2BIN.CPP|C:\CHUAZED\NIST_PROF\MAIN.CPP
C:\CHUAZED\NIST_PROF\NISTTEST\DEBUG\VC142.PDB
C:\CHUAZED\NIST_PROF\NISTTEST\DEBUG\VC142.IDB
C:\CHUAZED\NIST_PROF\NISTTEST\DEBUG\MAIN.OBJ
C:\CHUAZED\NIST_PROF\NISTTEST\DEBUG\FP2BIN.OBJ
^C:\CHUAZED\NIST_PROF\FP2BIN.CPP
C:\CHUAZED\NIST_PROF\NISTTEST\DEBUG\VC142.PDB
^C:\CHUAZED\NIST_PROF\MAIN.CPP
C:\CHUAZED\NIST_PROF\NISTTEST\DEBUG\VC142.PDB
C:\CHUAZED\NIST_PROF\NISTTEST\DEBUG\VC142.IDB
C:\CHUAZED\NIST_PROF\NISTTEST\DEBUG\MAIN.OBJ
^C:\GITNISTTEST\NIST_PROFX32\FP2BIN.CPP|C:\GITNISTTEST\NIST_PROFX32\MAIN.CPP
C:\GITNISTTEST\NIST_PROFX32\X32\DEBUG\VC142.PDB
C:\GITNISTTEST\NIST_PROFX32\X32\DEBUG\VC142.IDB
C:\GITNISTTEST\NIST_PROFX32\X32\DEBUG\MAIN.OBJ
C:\GITNISTTEST\NIST_PROFX32\X32\DEBUG\FP2BIN.OBJ
^C:\GITNISTTEST\NIST_PROFX32\FP2BIN.CPP
C:\GITNISTTEST\NIST_PROFX32\X32\DEBUG\VC142.PDB
^C:\GITNISTTEST\NIST_PROFX32\MAIN.CPP
C:\GITNISTTEST\NIST_PROFX32\X32\DEBUG\VC142.PDB
C:\GITNISTTEST\NIST_PROFX32\X32\DEBUG\VC142.IDB
C:\GITNISTTEST\NIST_PROFX32\X32\DEBUG\MAIN.OBJ
